\select@language {ngerman}
\contentsline {section}{\numberline {0.1}Die Euler-Gleichung der Variationsrechnung}{3}{section.0.1}
\contentsline {subsection}{\numberline {0.1.1}Brachistochrone}{3}{subsection.0.1.1}
\contentsline {section}{\numberline {0.2}Vektorfelder und Kurvenintegrale}{8}{section.0.2}
\contentsline {section}{\numberline {0.3}Homotopie von Kurven}{14}{section.0.3}
