\relax 
\providecommand\hyper@newdestlabel[2]{}
\catcode `"\active 
\providecommand\HyperFirstAtBeginDocument{\AtBeginDocument}
\HyperFirstAtBeginDocument{\ifx\hyper@anchor\@undefined
\global\let\oldcontentsline\contentsline
\gdef\contentsline#1#2#3#4{\oldcontentsline{#1}{#2}{#3}}
\global\let\oldnewlabel\newlabel
\gdef\newlabel#1#2{\newlabelxx{#1}#2}
\gdef\newlabelxx#1#2#3#4#5#6{\oldnewlabel{#1}{{#2}{#3}}}
\AtEndDocument{\ifx\hyper@anchor\@undefined
\let\contentsline\oldcontentsline
\let\newlabel\oldnewlabel
\fi}
\fi}
\global\let\hyper@last\relax 
\gdef\HyperFirstAtBeginDocument#1{#1}
\providecommand\HyField@AuxAddToFields[1]{}
\providecommand\HyField@AuxAddToCoFields[2]{}
\select@language{ngerman}
\@writefile{toc}{\select@language{ngerman}}
\@writefile{lof}{\select@language{ngerman}}
\@writefile{lot}{\select@language{ngerman}}
\newlabel{10.10.4}{{1}{2}{}{satz.1}{}}
\@writefile{toc}{\contentsline {section}{\numberline {0.1}Die Euler-Gleichung der Variationsrechnung}{3}{section.0.1}}
\@writefile{toc}{\contentsline {subsection}{\numberline {0.1.1}Brachistochrone}{3}{subsection.0.1.1}}
\@writefile{lof}{\contentsline {figure}{\numberline {1}{\ignorespaces Skizze einer Brachistochrone im Beispiel des Freien Falls}}{4}{figure.0.1}}
\newlabel{fig:Brachistochorne}{{1}{4}{Skizze einer Brachistochrone im Beispiel des Freien Falls}{figure.0.1}{}}
\newlabel{10.11.1}{{0.1.1}{5}{}{theorem.0.1.1}{}}
\newlabel{10.11.2}{{0.1.2}{5}{}{theorem.0.1.2}{}}
\@writefile{toc}{\contentsline {section}{\numberline {0.2}Vektorfelder und Kurvenintegrale}{8}{section.0.2}}
\newlabel{eq:10.12 H1}{{0.2.1}{11}{Vektorfelder und Kurvenintegrale}{equation.0.2.1}{}}
\newlabel{eq:10.12 H2}{{0.2.2}{11}{Vektorfelder und Kurvenintegrale}{equation.0.2.2}{}}
\newlabel{10.12.2}{{2}{11}{}{satz.2}{}}
\newlabel{10.12.3}{{0.2.2}{13}{}{theorem.0.2.2}{}}
\@writefile{toc}{\contentsline {section}{\numberline {0.3}Homotopie von Kurven}{14}{section.0.3}}
\@writefile{lof}{\contentsline {figure}{\numberline {2}{\ignorespaces }}{15}{figure.0.2}}
\newlabel{fig:homotopie}{{2}{15}{}{figure.0.2}{}}
\newlabel{10.13.1}{{3}{15}{}{satz.3}{}}
\@writefile{lof}{\contentsline {figure}{\numberline {3}{\ignorespaces Skizze zu $\delta \Omega $}}{17}{figure.0.3}}
\newlabel{fig:delta Gamma}{{3}{17}{Skizze zu $\delta \Omega $}{figure.0.3}{}}
\newlabel{10.13.2}{{0.3.1}{18}{}{theorem.0.3.1}{}}
